^D:\FREELANCING PROJECTS\QRALGORITHM\MATHCODE\MATHCODE\MATHCODE\DEBUG\DOUBLE_VECT.OBJ|D:\FREELANCING PROJECTS\QRALGORITHM\MATHCODE\MATHCODE\MATHCODE\DEBUG\FUNCTIONS_TESTS.OBJ|D:\FREELANCING PROJECTS\QRALGORITHM\MATHCODE\MATHCODE\MATHCODE\DEBUG\HESSENBERG_ORTHOG.OBJ|D:\FREELANCING PROJECTS\QRALGORITHM\MATHCODE\MATHCODE\MATHCODE\DEBUG\MAIN.OBJ|D:\FREELANCING PROJECTS\QRALGORITHM\MATHCODE\MATHCODE\MATHCODE\DEBUG\MATRIX.OBJ|D:\FREELANCING PROJECTS\QRALGORITHM\MATHCODE\MATHCODE\MATHCODE\DEBUG\QR_ALGORITHM.OBJ|D:\FREELANCING PROJECTS\QRALGORITHM\MATHCODE\MATHCODE\MATHCODE\DEBUG\QR_ALGORITHM_TEST.OBJ
D:\FREELANCING PROJECTS\QRALGORITHM\MATHCODE\MATHCODE\DEBUG\MATHCODE.EXE
D:\FREELANCING PROJECTS\QRALGORITHM\MATHCODE\MATHCODE\DEBUG\MATHCODE.ILK
D:\FREELANCING PROJECTS\QRALGORITHM\MATHCODE\MATHCODE\DEBUG\MATHCODE.PDB
