^D:\FREELANCING PROJECTS\QRALGORITHM\MATHCODE\MATHCODE\MATHCODE\DEBUG\DOUBLE_VECT.OBJ|D:\FREELANCING PROJECTS\QRALGORITHM\MATHCODE\MATHCODE\MATHCODE\DEBUG\FUNCTIONS_TESTS.OBJ|D:\FREELANCING PROJECTS\QRALGORITHM\MATHCODE\MATHCODE\MATHCODE\DEBUG\HESSENBERG_ORTHOG.OBJ|D:\FREELANCING PROJECTS\QRALGORITHM\MATHCODE\MATHCODE\MATHCODE\DEBUG\MAIN.OBJ|D:\FREELANCING PROJECTS\QRALGORITHM\MATHCODE\MATHCODE\MATHCODE\DEBUG\MATRIX.OBJ|D:\FREELANCING PROJECTS\QRALGORITHM\MATHCODE\MATHCODE\MATHCODE\DEBUG\QR_ALGORITHM.OBJ|D:\FREELANCING PROJECTS\QRALGORITHM\MATHCODE\MATHCODE\MATHCODE\DEBUG\QR_ALGORITHM_TEST.OBJ
/OUT:"D:\FREELANCING PROJECTS\QRALGORITHM\MATHCODE\MATHCODE\DEBUG\MATHCODE.EXE" /INCREMENTAL /NOLOGO KERNEL32.LIB USER32.LIB GDI32.LIB WINSPOOL.LIB COMDLG32.LIB ADVAPI32.LIB SHELL32.LIB OLE32.LIB OLEAUT32.LIB UUID.LIB ODBC32.LIB ODBCCP32.LIB /MANIFEST /MANIFESTUAC:"level='asInvoker' uiAccess='false'" /manifest:embed /DEBUG:FASTLINK /PDB:"D:\FREELANCING PROJECTS\QRALGORITHM\MATHCODE\MATHCODE\DEBUG\MATHCODE.PDB" /SUBSYSTEM:CONSOLE /TLBID:1 /DYNAMICBASE /NXCOMPAT /IMPLIB:"D:\FREELANCING PROJECTS\QRALGORITHM\MATHCODE\MATHCODE\DEBUG\MATHCODE.LIB" /MACHINE:X86 DEBUG\DOUBLE_VECT.OBJ
DEBUG\FUNCTIONS_TESTS.OBJ
DEBUG\HESSENBERG_ORTHOG.OBJ
DEBUG\MAIN.OBJ
DEBUG\MATRIX.OBJ
DEBUG\QR_ALGORITHM.OBJ
DEBUG\QR_ALGORITHM_TEST.OBJ
